^C:\USERS\IRINA\DESKTOP\GEMINICAD\FIIPRACTIC17\WEEK 3\FILESERCHER\STDAFX.CPP
C:\USERS\IRINA\DESKTOP\GEMINICAD\FIIPRACTIC17\WEEK 3\FILESERCHER\DEBUG\FILESERCHER.PCH
C:\USERS\IRINA\DESKTOP\GEMINICAD\FIIPRACTIC17\WEEK 3\FILESERCHER\DEBUG\VC140.PDB
C:\USERS\IRINA\DESKTOP\GEMINICAD\FIIPRACTIC17\WEEK 3\FILESERCHER\DEBUG\VC140.IDB
C:\USERS\IRINA\DESKTOP\GEMINICAD\FIIPRACTIC17\WEEK 3\FILESERCHER\DEBUG\STDAFX.OBJ
^C:\USERS\IRINA\DESKTOP\GEMINICAD\FIIPRACTIC17\WEEK 3\FILESERCHER\COMANDLINEPARSER.CPP|C:\USERS\IRINA\DESKTOP\GEMINICAD\FIIPRACTIC17\WEEK 3\FILESERCHER\FILEPARSER.CPP|C:\USERS\IRINA\DESKTOP\GEMINICAD\FIIPRACTIC17\WEEK 3\FILESERCHER\FILESERCHER.CPP|C:\USERS\IRINA\DESKTOP\GEMINICAD\FIIPRACTIC17\WEEK 3\FILESERCHER\THREADFILEPARSER.CPP
C:\USERS\IRINA\DESKTOP\GEMINICAD\FIIPRACTIC17\WEEK 3\FILESERCHER\DEBUG\VC140.PDB
C:\USERS\IRINA\DESKTOP\GEMINICAD\FIIPRACTIC17\WEEK 3\FILESERCHER\DEBUG\VC140.IDB
C:\USERS\IRINA\DESKTOP\GEMINICAD\FIIPRACTIC17\WEEK 3\FILESERCHER\DEBUG\COMANDLINEPARSER.OBJ
C:\USERS\IRINA\DESKTOP\GEMINICAD\FIIPRACTIC17\WEEK 3\FILESERCHER\DEBUG\FILEPARSER.OBJ
C:\USERS\IRINA\DESKTOP\GEMINICAD\FIIPRACTIC17\WEEK 3\FILESERCHER\DEBUG\FILESERCHER.OBJ
C:\USERS\IRINA\DESKTOP\GEMINICAD\FIIPRACTIC17\WEEK 3\FILESERCHER\DEBUG\THREADFILEPARSER.OBJ
^C:\USERS\IRINA\DESKTOP\GEMINICAD\FIIPRACTIC17\WEEK 3\FILESERCHER\COMANDLINEPARSER.CPP
C:\USERS\IRINA\DESKTOP\GEMINICAD\FIIPRACTIC17\WEEK 3\FILESERCHER\DEBUG\VC140.PDB
^C:\USERS\IRINA\DESKTOP\GEMINICAD\FIIPRACTIC17\WEEK 3\FILESERCHER\FILEPARSER.CPP
C:\USERS\IRINA\DESKTOP\GEMINICAD\FIIPRACTIC17\WEEK 3\FILESERCHER\DEBUG\VC140.PDB
^C:\USERS\IRINA\DESKTOP\GEMINICAD\FIIPRACTIC17\WEEK 3\FILESERCHER\FILESERCHER.CPP
C:\USERS\IRINA\DESKTOP\GEMINICAD\FIIPRACTIC17\WEEK 3\FILESERCHER\DEBUG\VC140.PDB
^C:\USERS\IRINA\DESKTOP\GEMINICAD\FIIPRACTIC17\WEEK 3\FILESERCHER\THREADFILEPARSER.CPP
C:\USERS\IRINA\DESKTOP\GEMINICAD\FIIPRACTIC17\WEEK 3\FILESERCHER\DEBUG\VC140.PDB
